{
  "total": 1234,
  "offset": 0,
  "next": 10,
  "data": [
    {
      "paperId": "5c5751d45e298cea054f32b392c12c61027d2fe7",
      "title": "Construction of the Literature Graph in Semantic Scholar",
      "abstract": "We describe a deployed scalable system for organizing published scientific literature into a heterogeneous graph to facilitate algorithmic manipulation and discovery.",
      "year": 2020,
      "citationCount": 453,
      "url": "https://www.semanticscholar.org/paper/5c5751d45e298cea054f32b392c12c61027d2fe7",
      "authors": [
        {
          "authorId": "1741101",
          "name": "Oren Etzioni"
        },
        {
          "authorId": "145612345",
          "name": "Daniel S. Weld"
        }
      ]
    },
    {
      "paperId": "649def34f8be52c8b66281af98ae884c09aef38b",
      "title": "Attention Is All You Need",
      "abstract": "The dominant sequence transduction models are based on complex recurrent or convolutional neural networks. We propose a new simple network architecture based solely on attention mechanisms.",
      "year": 2017,
      "citationCount": 98765,
      "url": "https://www.semanticscholar.org/paper/649def34f8be52c8b66281af98ae884c09aef38b",
      "authors": [
        {
          "authorId": "1699545",
          "name": "Ashish Vaswani"
        }
      ]
    },
    {
      "paperId": "abc123def456",
      "title": "Paper Without Abstract",
      "year": 2023,
      "citationCount": 5,
      "url": "https://www.semanticscholar.org/paper/abc123def456",
      "authors": []
    }
  ]
}
